• ldsR
…
Munge

The munge() function can be used to mimic some of the
filters of the munge_sumstats.py file from ldsc.

munge(sumstat1)
#> ! Removed 0 rows after filtering on reference panel
#> ! Removed 0 rows with duplicated RSIDs
#> ! Removed 0 rows due to strand ambigious alleles
#> ! Removed 0 rows with a sample size smaller than 87096
#> # A tibble: 100,000 × 5
#>    SNP             Z      N A1    A2   
#>    <chr>       <dbl>  <dbl> <chr> <chr>
#>  1 rs3094315   0.289 126849 A     G    
#>  2 rs3131972   0.269 126849 A     G    
#>  3 rs3131969  -0.074 126849 A     G    
#>  4 rs1048488   0.273 126849 A     G    
#>  5 rs3115850   0.263 126849 A     G    
#>  6 rs2286139   0.034 126849 A     G    
#>  7 rs12562034  0.346 118583 A     G    
#>  8 rs4040617   0.13  127964 A     G    
#>  9 rs2980300  -0.303 127964 A     G    
#> 10 rs4970383  -2.37  114957 A     G    
#> # ℹ 99,990 more rows
…
